Evaluate event independence — mm_independence • maimer
…
sprintf("Independent observations: %s", nrow(indep1))
#> [1] "Independent observations: 177"

# Independence considering species occurrence
indep2 <- cam_data %>%
  mm_independence(data = ., datetime = datetimes, format = "%Y-%m-%d %H:%M:%S",
                  only = TRUE, species_column = "species")

sprintf("Independent observations: %s", nrow(indep2))
#> [1] "Independent observations: 183"

# Use a standalone vector of datetime values
dtime <- cam_data$datetimes
mm_independence(datetime = dtime, format = "%Y-%m-%d %H:%M:%S", only = TRUE)
#> # A tibble: 177 × 1
#>    datetime           
#>    <dttm>             
#>  1 2019-01-20 15:24:41
#>  2 2019-01-21 15:23:38
#>  3 2019-01-23 15:35:20
#>  4 2019-01-24 06:01:07
#>  5 2023-09-20 16:15:28
#>  6 2023-09-21 13:32:45
#>  7 2024-03-02 22:32:10
#>  8 2024-03-10 10:21:56
#>  9 2024-03-10 15:04:38
#> 10 2024-03-10 17:28:11
#> # ℹ 167 more rows
…
